{
    "Database": {
        "qtDatabaseDriver": "QMYSQL",
        "name": "angiovispatientpersistency",
        "host": "localhost",
        "port": 3306,
        "user": "root",
        "password": "asdf1234!"
    },
    "Storage": {
        "path": "/Users/manu/Documents/private/projects/avpp/",
        "trash": "/Users/manu/Documents/private/projects/avpp/.Trash/"
    },
    "Logging": {
        "logFilePath": "/Users/manu/Documents/private/projects/avpp/default.log"
    }
}
